{
  "node1": {
    "net": "Hostname=927b43837e57 IP=172.17.0.2 Mac=02:42:ac:11:00:02 Bridge=docker0",
    "ip": "172.17.0.2",
    "pid": 2602,
    "veth_cont_vebose": "6: eth0@if7: <BROADCAST,MULTICAST,UP,LOWER_UP> mtu 1500 qdisc noqueue state UP group default \n    link/ether 02:42:ac:11:00:02 brd ff:ff:ff:ff:ff:ff link-netnsid 0\n    inet 172.17.0.2/16 brd 172.17.255.255 scope global eth0\n       valid_lft forever preferred_lft forever",
    "veth_cont": "eth0@if7",
    "veth_host_verbose": "7: veth62010b0@if6: <BROADCAST,MULTICAST,UP,LOWER_UP> mtu 1500 qdisc noqueue master docker0 state UP group default \n    link/ether 62:9a:28:03:9e:71 brd ff:ff:ff:ff:ff:ff link-netnsid 0\n    inet6 fe80::609a:28ff:fe03:9e71/64 scope link \n       valid_lft forever preferred_lft forever",
    "veth_host": "veth62010b0"
  },
  "node2": {
    "net": "Hostname=18b377acc85b IP=172.17.0.3 Mac=02:42:ac:11:00:03 Bridge=docker0",
    "ip": "172.17.0.3",
    "pid": 2681,
    "veth_cont_vebose": "8: eth0@if9: <BROADCAST,MULTICAST,UP,LOWER_UP> mtu 1500 qdisc noqueue state UP group default \n    link/ether 02:42:ac:11:00:03 brd ff:ff:ff:ff:ff:ff link-netnsid 0\n    inet 172.17.0.3/16 brd 172.17.255.255 scope global eth0\n       valid_lft forever preferred_lft forever",
    "veth_cont": "eth0@if9",
    "veth_host_verbose": "9: veth23c7d85@if8: <BROADCAST,MULTICAST,UP,LOWER_UP> mtu 1500 qdisc noqueue master docker0 state UP group default \n    link/ether 12:d3:5f:7a:42:67 brd ff:ff:ff:ff:ff:ff link-netnsid 1\n    inet6 fe80::10d3:5fff:fe7a:4267/64 scope link \n       valid_lft forever preferred_lft forever",
    "veth_host": "veth23c7d85"
  },
  "docker0": "5: docker0: <BROADCAST,MULTICAST,UP,LOWER_UP> mtu 1500 qdisc noqueue state UP group default \n    link/ether 02:42:05:b6:9b:38 brd ff:ff:ff:ff:ff:ff\n    inet 172.17.0.1/16 brd 172.17.255.255 scope global docker0\n       valid_lft forever preferred_lft forever\n    inet6 fe80::42:5ff:feb6:9b38/64 scope link \n       valid_lft forever preferred_lft forever"
}
